jbiadmin00120 : Install a component to a non-domain target, the component should be installed automatically to the domain target
IGNORE JBI_HOME is D:/nikita/dev/jsr208/main/open-esb/install/as8/jbi
IGNORE JBI_DOMAIN_ROOT is D:/nikita/dev/jsr208/main/open-esb/install/as8/domains/CAS
IGNORE jbi_instance_name is server
IGNORE jmx.provider is service:jmx:rmi:///jndi/rmi://Mystique01:10789/management/rmi-jmx-connector

BUILD SUCCESSFUL
IGNORE Total time: 2 seconds
Installing a component
IGNORE jmx connection info: (host=localhost, port=6951, secure=true, useSunWSrname=admin, target=server )
IGNORE   file=D:/nikita/dev/jsr208/main/open-esb/runtime/esb-manage/bld/test-classes/dist/component-binding1.jar
Install component succeeded. [
manage-binding-1
]

BUILD SUCCESSFUL
IGNORE Total time: 4 seconds
============================================================
  List of Binding Components for Target "server"
============================================================
Name       : manage-binding-1
State      : Shutdown
Description: A dummy binding used to test deployment.
------------------------------------------------------------
Name       : sun-http-binding
State      : Shutdown
Description: HTTP binding component. Provides message processing capabilities over HTTP protocol in a JBI 1.0 compliant environment.
------------------------------------------------------------

BUILD SUCCESSFUL
IGNORE Total time: 2 seconds
============================================================
  List of Binding Components for Target "domain"
============================================================
Name       : manage-binding-1
State      : Shutdown
Description: A dummy binding used to test deployment.
------------------------------------------------------------
Name       : sun-http-binding
State      : Shutdown
Description: HTTP binding component. Provides message processing capabilities over HTTP protocol in a JBI 1.0 compliant environment.
------------------------------------------------------------

BUILD SUCCESSFUL
IGNORE Total time: 2 seconds
Starting a component
IGNORE   jmx connection info: (host=localhost, port=6951, secure=true, username=admin, target=server )
IGNORE   name=manage-binding-1
Start component succeeded. [
manage-binding-1
]

BUILD SUCCESSFUL
IGNORE Total time: 2 seconds
============================================================
  List of Binding Components for Target "server"
============================================================
Name       : manage-binding-1
State      : Started
Description: A dummy binding used to test deployment.
------------------------------------------------------------
Name       : sun-http-binding
State      : Shutdown
Description: HTTP binding component. Provides message processing capabilities over HTTP protocol in a JBI 1.0 compliant environment.
------------------------------------------------------------

BUILD SUCCESSFUL
IGNORE Total time: 2 seconds
============================================================
  List of Binding Components for Target "domain"
============================================================
Name       : manage-binding-1
State      : Started
Description: A dummy binding used to test deployment.
------------------------------------------------------------
Name       : sun-http-binding
State      : Shutdown
Description: HTTP binding component. Provides message processing capabilities over HTTP protocol in a JBI 1.0 compliant environment.
------------------------------------------------------------

BUILD SUCCESSFUL
IGNORE Total time: 2 seconds
Stopping a component
IGNORE   jmx connection info: (host=localhost, port=6951, secure=true, username=admin, target=server )
IGNORE   name=manage-binding-1
Stop component succeeded. [
manage-binding-1
]

BUILD SUCCESSFUL
IGNORE Total time: 2 seconds
============================================================
  List of Binding Components for Target "server"
============================================================
Name       : manage-binding-1
State      : Stopped
Description: A dummy binding used to test deployment.
------------------------------------------------------------
Name       : sun-http-binding
State      : Shutdown
Description: HTTP binding component. Provides message processing capabilities over HTTP protocol in a JBI 1.0 compliant environment.
------------------------------------------------------------

BUILD SUCCESSFUL
IGNORE Total time: 2 seconds
============================================================
  List of Binding Components for Target "domain"
============================================================
Name       : manage-binding-1
State      : Stopped
Description: A dummy binding used to test deployment.
------------------------------------------------------------
Name       : sun-http-binding
State      : Shutdown
Description: HTTP binding component. Provides message processing capabilities over HTTP protocol in a JBI 1.0 compliant environment.
------------------------------------------------------------

BUILD SUCCESSFUL
IGNORE Total time: 2 seconds
Shutting down a component
IGNORE   jmx connection info: (host=localhost, port=6951, secure=true, username=admin, target=server )
IGNORE   name=manage-binding-1
Shutdown component succeeded. [
manage-binding-1
]

BUILD SUCCESSFUL
IGNORE Total time: 2 seconds
============================================================
  List of Binding Components for Target "server"
============================================================
Name       : manage-binding-1
State      : Shutdown
Description: A dummy binding used to test deployment.
------------------------------------------------------------
Name       : sun-http-binding
State      : Shutdown
Description: HTTP binding component. Provides message processing capabilities over HTTP protocol in a JBI 1.0 compliant environment.
------------------------------------------------------------

BUILD SUCCESSFUL
IGNORE Total time: 2 seconds
============================================================
  List of Binding Components for Target "domain"
============================================================
Name       : manage-binding-1
State      : Shutdown
Description: A dummy binding used to test deployment.
------------------------------------------------------------
Name       : sun-http-binding
State      : Shutdown
Description: HTTP binding component. Provides message processing capabilities over HTTP protocol in a JBI 1.0 compliant environment.
------------------------------------------------------------

BUILD SUCCESSFUL
IGNORE Total time: 2 seconds
Uninstalling a component
IGNORE   jmx connection info: (host=localhost, port=6951, secure=true, username=admin, target=server )
IGNORE   name=manage-binding-1
Uninstall component succeeded. [
manage-binding-1
]

BUILD SUCCESSFUL
IGNORE Total time: 2 seconds
