jbiadmin01605 - Test operations for application configuration / variables support
IGNORE JBI_HOME is /Users/nikki/dev/jbi/open-esb/install/as8/jbi
IGNORE JBI_DOMAIN_ROOT is /Users/nikki/dev/jbi/open-esb/install/as8/domains/CAS
IGNORE jbi_instance_name is server
IGNORE jmx.provider is service:jmx:rmi:///jndi/rmi://nikita-sawants-computer.local:8689/management/rmi-jmx-connector

BUILD SUCCESSFUL
IGNORE Total time: 0 seconds
Installed component manage-binding-1.
IGNORE JBI_HOME is /Users/nikki/dev/jbi/open-esb/install/as8/jbi
IGNORE JBI_DOMAIN_ROOT is /Users/nikki/dev/jbi/open-esb/install/as8/domains/CAS
IGNORE jbi_instance_name is server
IGNORE jmx.provider is service:jmx:rmi:///jndi/rmi://nikita-sawants-computer.local:8689/management/rmi-jmx-connector
##### Result of  isAppVarsSupported = Exception : <?xml version="1.0" encoding="UTF-8" standalone="yes"?><jbi-task version="1.0" xmlns="http://java.sun.com/xml/ns/jbi/management-message"><jbi-task-result><frmwk-task-result><frmwk-task-result-details><task-result-details><task-id>componentStartedOrStoppedOnTargetCheck</task-id><task-result>FAILED</task-result><message-type>ERROR</message-type><task-status-msg><msg-loc-info><loc-token>JBIMA1803</loc-token><loc-message>Component manage-binding-1 is in the Shutdown state. Cannot create, update, list or delete configuration for a component which is not in Started or Stopped state.</loc-message><loc-param>manage-binding-1</loc-param><loc-param>Shutdown</loc-param><loc-param>server</loc-param></msg-loc-info></task-status-msg></task-result-details><locale>en</locale></frmwk-task-result-details></frmwk-task-result></jbi-task-result></jbi-task>
##### Result of  isAppVarsSupported = Exception : <?xml version="1.0" encoding="UTF-8" standalone="yes"?><jbi-task version="1.0" xmlns="http://java.sun.com/xml/ns/jbi/management-message"><jbi-task-result><frmwk-task-result><frmwk-task-result-details><task-result-details><task-id>componentStartedOrStoppedOnTargetCheck</task-id><task-result>FAILED</task-result><message-type>ERROR</message-type><task-status-msg><msg-loc-info><loc-token>JBIMA1803</loc-token><loc-message>Component manage-binding-1 is in the Shutdown state. Cannot create, update, list or delete configuration for a component which is not in Started or Stopped state.</loc-message><loc-param>manage-binding-1</loc-param><loc-param>Shutdown</loc-param><loc-param>server</loc-param></msg-loc-info></task-status-msg></task-result-details><locale>en</locale></frmwk-task-result-details></frmwk-task-result></jbi-task-result></jbi-task>

BUILD SUCCESSFUL
IGNORE Total time: 1 second
Started component manage-binding-1.
IGNORE JBI_HOME is /Users/nikki/dev/jbi/open-esb/install/as8/jbi
IGNORE JBI_DOMAIN_ROOT is /Users/nikki/dev/jbi/open-esb/install/as8/domains/CAS
IGNORE jbi_instance_name is server
IGNORE jmx.provider is service:jmx:rmi:///jndi/rmi://nikita-sawants-computer.local:8689/management/rmi-jmx-connector
##### Result of isAppVarsSupported = false

BUILD SUCCESSFUL
IGNORE Total time: 1 second
IGNORE JBI_HOME is /Users/nikki/dev/jbi/open-esb/install/as8/jbi
IGNORE JBI_DOMAIN_ROOT is /Users/nikki/dev/jbi/open-esb/install/as8/domains/CAS
IGNORE jbi_instance_name is server
IGNORE jmx.provider is service:jmx:rmi:///jndi/rmi://nikita-sawants-computer.local:8689/management/rmi-jmx-connector
##### Result of isAppConfigSupported = false

BUILD SUCCESSFUL
IGNORE Total time: 1 second
Shut Down component manage-binding-1.
Uninstalled component manage-binding-1.
Installed component manage-binding-1.
Started component manage-binding-1.
IGNORE JBI_HOME is /Users/nikki/dev/jbi/open-esb/install/as8/jbi
IGNORE JBI_DOMAIN_ROOT is /Users/nikki/dev/jbi/open-esb/install/as8/domains/CAS
IGNORE jbi_instance_name is server
IGNORE jmx.provider is service:jmx:rmi:///jndi/rmi://nikita-sawants-computer.local:8689/management/rmi-jmx-connector
##### Result of isAppVarsSupported = false

BUILD SUCCESSFUL
IGNORE Total time: 1 second
IGNORE JBI_HOME is /Users/nikki/dev/jbi/open-esb/install/as8/jbi
IGNORE JBI_DOMAIN_ROOT is /Users/nikki/dev/jbi/open-esb/install/as8/domains/CAS
IGNORE jbi_instance_name is server
IGNORE jmx.provider is service:jmx:rmi:///jndi/rmi://nikita-sawants-computer.local:8689/management/rmi-jmx-connector
##### Result of isAppConfigSupported = false

BUILD SUCCESSFUL
IGNORE Total time: 1 second
Shut Down component manage-binding-1.
Uninstalled component manage-binding-1.
