testname is jbiadmin01260
  ERROR:(JBIMA0000)JavaEEServiceEngineSUManager :: doDeploy(String,String,String,String) Status 0 message Deploying application in domain failed
CLI205 The service assembly specified BadJavaEEApp does not exist.
CLI137 Command show-jbi-service-assembly failed.