
-------------------------------------------------------------------
 Start Test : jbi-admin-cli00009
 Description: Test Show and Set for Component configuration and loggers
-------------------------------------------------------------------
-------------------------------------------------------------------
 Building the test artifacts
-------------------------------------------------------------------

-------------------------------------------------------------------
 Set the OutboundTread component value to 5 from the command line
-------------------------------------------------------------------
set-jbi-component-configuration --component=sun-http-binding OutboundThreads=5
Successfully set attributes [ OutboundThreads ] on component sun-http-binding.

-------------------------------------------------------------------
 Show just the OutboundThreads configuration value
-------------------------------------------------------------------
show-jbi-binding-component --configuration sun-http-binding | grep OutboundThreads
OutboundThreads = 5

-------------------------------------------------------------------
 Set a both the OutboundThread and UseJVMProxySettings variables from the command line
-------------------------------------------------------------------
set-jbi-component-configuration --component=sun-http-binding OutboundThreads=7,UseJVMProxySettings=true
Successfully set attributes [ UseJVMProxySettings, OutboundThreads ] on component sun-http-binding.

-------------------------------------------------------------------
 Show the sun-http-binding Component Configuration Values
-------------------------------------------------------------------
show-jbi-binding-component --configuration sun-http-binding | grep OutboundThreads
OutboundThreads = 7

-------------------------------------------------------------------
 Show the sun-http-binding Component Configuration Values
-------------------------------------------------------------------
show-jbi-binding-component --configuration sun-http-binding | grep UseJVMProxySettings
UseJVMProxySettings = true

-------------------------------------------------------------------
 Using the property file, set the values
-------------------------------------------------------------------
set-jbi-component-configuration --component=sun-http-binding componentConfig.property
Successfully set attributes [ OutboundThreads ] on component sun-http-binding.

-------------------------------------------------------------------
 Show the sun-http-binding Component Configuration Values
-------------------------------------------------------------------
show-jbi-binding-component --configuration sun-http-binding | grep OutboundThreads
OutboundThreads = 8

-------------------------------------------------------------------
 Using the property file, set the logger levels
-------------------------------------------------------------------
set-jbi-component-logger --component=sun-http-binding componentLoggers.property
Command set-jbi-component-logger executed successfully.

-------------------------------------------------------------------
 Show just the com.sun.jbi.httpsoapbc.HttpNormalizer logger value
-------------------------------------------------------------------
show-jbi-binding-component --loggers sun-http-binding | grep com.sun.jbi.httpsoapbc.HttpNormalizer
com.sun.jbi.httpsoapbc.HttpNormalizer = INFO

-------------------------------------------------------------------
 Show com.sun.jbi.httpsoapbc.HttpNormalizer but use the --terse flag
-------------------------------------------------------------------
show-jbi-binding-component --loggers --terse sun-http-binding | grep com.sun.jbi.httpsoapbc.HttpNormalizer
com.sun.jbi.httpsoapbc.HttpNormalizer = INFO

-------------------------------------------------------------------
 Set the logger com.sun.jbi.httpsoapbc.HttpNormalizer to FINE from the command line
-------------------------------------------------------------------
set-jbi-component-logger --component=sun-http-binding com.sun.jbi.httpsoapbc.HttpNormalizer=FINE
Command set-jbi-component-logger executed successfully.

-------------------------------------------------------------------
 Show all the sun-http-binding Logger Levels
-------------------------------------------------------------------
show-jbi-binding-component --loggers sun-http-binding | grep com.sun.jbi.httpsoapbc.HttpNormalizer
com.sun.jbi.httpsoapbc.HttpNormalizer = FINE

-------------------------------------------------------------------
 Set a both the com.sun.jbi.httpsoapbc.HttpNormalizer and the
 com.sun.jbi.httpsoapbc.Extension loggers to WARNING from the command line
-------------------------------------------------------------------
set-jbi-component-logger --component=sun-http-binding com.sun.jbi.httpsoapbc.HttpNormalizer=WARNING,com.sun.jbi.httpsoapbc.Extension=WARNING
Command set-jbi-component-logger executed successfully.

-------------------------------------------------------------------
 Show all the sun-http-binding Logger Levels
-------------------------------------------------------------------
show-jbi-binding-component --loggers sun-http-binding | grep com.sun.jbi.httpsoapbc.HttpNormalizer
com.sun.jbi.httpsoapbc.HttpNormalizer = WARNING

-------------------------------------------------------------------
 Show the com.sun.jbi.httpsoapbc.Extension Logger Levels
-------------------------------------------------------------------
show-jbi-binding-component --loggers sun-http-binding | grep com.sun.jbi.httpsoapbc.Extension
com.sun.jbi.httpsoapbc.Extension = WARNING

-------------------------------------------------------------------
 Using the property file, set the logger levels
-------------------------------------------------------------------
set-jbi-component-logger --component=sun-http-binding componentLoggers.property
Command set-jbi-component-logger executed successfully.

-------------------------------------------------------------------
 Show the com.sun.jbi.httpsoapbc.Extension Logger Levels
-------------------------------------------------------------------
show-jbi-binding-component --loggers sun-http-binding | grep com.sun.jbi.httpsoapbc.Extension
com.sun.jbi.httpsoapbc.Extension = INFO
