jbi-admin-gui00002.ksh
Buildfile: inc/selenium-build.ant

pre-test-run:
     [echo] Starting the Selenium Server

init-for-test:
Overriding previous definition of reference to test.classpath
     [echo] ${test.classpath}

compile-for-test:
[IGNORE]   [delete] Deleting 4 files from /space1/esb/open-esb/ri-clients/jbi-admin-gui/bld/test
 [IGNORE]     [delete] Deleted 5 directories from /space1/esb/open-esb/ri-clients/jbi-admin-gui/bld/test
 [IGNORE]      [javac] Compiling 4 source files to /space1/esb/open-esb/ri-clients/jbi-admin-gui/bld/test

run-test:
   [testng] [Parser] Running:
 [IGNORE]     [testng]   /space1/esb/open-esb/ri-clients/jbi-admin-gui/regress/inc/testng.xml

   [testng] ===============================================
   [testng] Suite1
   [testng] Total tests run: 18, Failures: 0, Skips: 0
   [testng] ===============================================


test:
     [echo] Stopping the Selenium Server
[selenium-shutdown] Getting: http://localhost:4444/selenium-server/driver/?cmd=shutDown
[IGNORE][selenium-shutdown] To: /space1/esb/open-esb/ri-clients/jbi-admin-gui/regress/inc/test-output/result.txt
[IGNORE][selenium-shutdown] Error getting http://localhost:4444/selenium-server/driver/?cmd=shutDown to /space1/esb/open-esb/ri-clients/jbi-admin-gui/regress/inc/test-output/result.txt

BUILD SUCCESSFUL
[IGNORE]Total time: 3 minutes 2 seconds
