admincommon00003.ksh : No CORBA stack trace when username is incorrect.
BUILD FAILED
IGNORE /blueman2/d/open-esb2/open-esb/install/as8/jbi/bin/jbi_admin.xml:796: List binding components failed. [
IGNORE   ERROR:(UICMN2094)Unable to connect to [host = localhost, port = 10587] for user notadmin. 
Check the connection settings and ensure that the server is running.
]
IGNORE Total time: 6 seconds
