admincommon00010: Test the application variable and application configuration management operations for component configuration for target=clustered-instance.
Command create-cluster executed successfully.
Command create-instance executed successfully.
IGNORE Redirecting output to /Users/nikki/dev/jbi/open-esb/install/as8/nodeagents/admin-agent1/agent/logs/server.log
IGNORE Redirecting application output to /Users/nikki/dev/jbi/open-esb/install/as8/nodeagents/admin-agent1/agent/logs/server.log
IGNORE Redirecting output to /Users/nikki/dev/jbi/open-esb/install/as8/nodeagents/admin-agent1/admin-cluster-instance-1/logs/server.log
Command start-instance executed successfully.
jbi_instance_name is server
IGNORE jmx.provider is service:jmx:rmi:///jndi/rmi://nikita-sawants-computer.local:8687/management/rmi-jmx-connector

BUILD SUCCESSFUL
IGNORE Total time: 0 seconds
Installing a component
IGNORE   jmx connection info: (host=localhost, port=4849, secure=false, username=admin, target=admin-cluster )
IGNORE   file=/Users/nikki/dev/jbi/open-esb/ri-clients/jbi-admin-common/bld/regress/testdata/component-with-custom-mbean.jar
Install component succeeded. [
admin-common-binding-1
]

BUILD SUCCESSFUL
IGNORE Total time: 1 second
Starting a component
IGNORE   jmx connection info: (host=localhost, port=4849, secure=false, username=admin, target=admin-cluster )
  name=admin-common-binding-1
Start component succeeded. [
admin-common-binding-1
]

BUILD SUCCESSFUL
IGNORE Total time: 0 seconds
jbi_instance_name is server
IGNORE jmx.provider is service:jmx:rmi:///jndi/rmi://nikita-sawants-computer.local:8687/management/rmi-jmx-connector
Result of getApplicationVariables: {default=[STRING]defValue}

BUILD SUCCESSFUL
IGNORE Total time: 1 second
jbi_instance_name is server
IGNORE jmx.provider is service:jmx:rmi:///jndi/rmi://nikita-sawants-computer.local:8687/management/rmi-jmx-connector
Result of addApplicationVariables: <?xml version="1.0" encoding="UTF-8" standalone="yes"?><jbi-task version="1.0" xmlns="http://java.sun.com/xml/ns/jbi/management-message" xmlns:xsi="http://www.w3.org/2001/XMLSchema-instance" > <jbi-task-result><frmwk-task-result><frmwk-task-result-details><task-result-details><task-id>addApplicationVariables</task-id><task-result>SUCCESS</task-result><message-type>INFO</message-type></task-result-details><locale></locale></frmwk-task-result-details><is-cause-framework>YES</is-cause-framework></frmwk-task-result></jbi-task-result></jbi-task>

BUILD SUCCESSFUL
IGNORE Total time: 1 second
IGNORE jbi_instance_name is server
IGNORE jmx.provider is service:jmx:rmi:///jndi/rmi://nikita-sawants-computer.local:8687/management/rmi-jmx-connector
Result of getApplicationVariables: {one=[STRING]One, three=[NUMBER]3, two=[NUMBER]2, default=[STRING]defValue}

BUILD SUCCESSFUL
IGNORE Total time: 1 second
IGNORE jbi_instance_name is server
IGNORE jmx.provider is service:jmx:rmi:///jndi/rmi://nikita-sawants-computer.local:8687/management/rmi-jmx-connector
Result of setApplicationVariables: <?xml version="1.0" encoding="UTF-8" standalone="yes"?><jbi-task version="1.0" xmlns="http://java.sun.com/xml/ns/jbi/management-message" xmlns:xsi="http://www.w3.org/2001/XMLSchema-instance" > <jbi-task-result><frmwk-task-result><frmwk-task-result-details><task-result-details><task-id>setApplicationVariables</task-id><task-result>SUCCESS</task-result><message-type>INFO</message-type></task-result-details><locale></locale></frmwk-task-result-details><is-cause-framework>YES</is-cause-framework></frmwk-task-result></jbi-task-result></jbi-task>

BUILD SUCCESSFUL
IGNORE Total time: 1 second
IGNORE jbi_instance_name is server
IGNORE jmx.provider is service:jmx:rmi:///jndi/rmi://nikita-sawants-computer.local:8687/management/rmi-jmx-connector
Result of getApplicationVariables: {one=[STRING]OneOne, three=[NUMBER]33, two=[NUMBER]22, default=[STRING]defValue}

BUILD SUCCESSFUL
IGNORE Total time: 1 second
IGNORE jbi_instance_name is server
IGNORE jmx.provider is service:jmx:rmi:///jndi/rmi://nikita-sawants-computer.local:8687/management/rmi-jmx-connector
Result of deleteApplicationVariables: <?xml version="1.0" encoding="UTF-8" standalone="yes"?><jbi-task version="1.0" xmlns="http://java.sun.com/xml/ns/jbi/management-message" xmlns:xsi="http://www.w3.org/2001/XMLSchema-instance" > <jbi-task-result><frmwk-task-result><frmwk-task-result-details><task-result-details><task-id>deleteApplicationVariables</task-id><task-result>SUCCESS</task-result><message-type>INFO</message-type></task-result-details><locale></locale></frmwk-task-result-details><is-cause-framework>YES</is-cause-framework></frmwk-task-result></jbi-task-result></jbi-task>

BUILD SUCCESSFUL
IGNORE Total time: 1 second
IGNORE jbi_instance_name is server
IGNORE jmx.provider is service:jmx:rmi:///jndi/rmi://nikita-sawants-computer.local:8687/management/rmi-jmx-connector
Result of getApplicationVariables: {one=[STRING]OneOne, default=[STRING]defValue}

BUILD SUCCESSFUL
IGNORE Total time: 1 second
jbi_instance_name is server
IGNORE jmx.provider is service:jmx:rmi:///jndi/rmi://nikita-sawants-computer.local:8687/management/rmi-jmx-connector
Result of getApplicationConfigurations: {defaultConfig={connectionURL=http://www.sun.com, configurationName=defaultConfig, securityCredential=abc, securityPrincipal=administrator, jndienv.1=env2=value2, jndienv.0=env1=value1}}

BUILD SUCCESSFUL
IGNORE Total time: 1 second
jbi_instance_name is server
IGNORE jmx.provider is service:jmx:rmi:///jndi/rmi://nikita-sawants-computer.local:8687/management/rmi-jmx-connector
##### Result of addApplicationConfiguration = <jbi-task version="1.0" xmlns="http://java.sun.com/xml/ns/jbi/management-message"><jbi-task-result><frmwk-task-result><frmwk-task-result-details><task-result-details><task-id>addApplicationConfiguration</task-id><task-result>SUCCESS</task-result></task-result-details><locale>en</locale></frmwk-task-result-details></frmwk-task-result></jbi-task-result></jbi-task>

BUILD SUCCESSFUL
IGNORE Total time: 1 second
jbi_instance_name is server
IGNORE jmx.provider is service:jmx:rmi:///jndi/rmi://nikita-sawants-computer.local:8687/management/rmi-jmx-connector
Result of getApplicationConfigurations: {adminConfig={connectionURL=http://localhost:8080/sun, configurationName=adminConfig, securityCredential=adminadmin, securityPrincipal=admin, jndienv.1=n2=v2, jndienv.0=n1=v1}, defaultConfig={connectionURL=http://www.sun.com, configurationName=defaultConfig, securityCredential=abc, securityPrincipal=administrator, jndienv.1=env2=value2, jndienv.0=env1=value1}}

BUILD SUCCESSFUL
IGNORE Total time: 1 second
jbi_instance_name is server
IGNORE jmx.provider is service:jmx:rmi:///jndi/rmi://nikita-sawants-computer.local:8687/management/rmi-jmx-connector
##### Result of setApplicationConfiguration = <jbi-task version="1.0" xmlns="http://java.sun.com/xml/ns/jbi/management-message"><jbi-task-result><frmwk-task-result><frmwk-task-result-details><task-result-details><task-id>setApplicationConfiguration</task-id><task-result>SUCCESS</task-result></task-result-details><locale>en</locale></frmwk-task-result-details></frmwk-task-result></jbi-task-result></jbi-task>

BUILD SUCCESSFUL
IGNORE Total time: 1 second
jbi_instance_name is server
IGNORE jmx.provider is service:jmx:rmi:///jndi/rmi://nikita-sawants-computer.local:8687/management/rmi-jmx-connector
Result of getApplicationConfigurations: {adminConfig={connectionURL=http://localhost:8790/sun, configurationName=adminConfig, securityCredential=adminUser, securityPrincipal=admin, jndienv.1=name2=value2, jndienv.0=name1=value1}, defaultConfig={connectionURL=http://www.sun.com, configurationName=defaultConfig, securityCredential=abc, securityPrincipal=administrator, jndienv.1=env2=value2, jndienv.0=env1=value1}}

BUILD SUCCESSFUL
IGNORE Total time: 1 second
jbi_instance_name is server
IGNORE jmx.provider is service:jmx:rmi:///jndi/rmi://nikita-sawants-computer.local:8687/management/rmi-jmx-connector
##### Result of deleteApplicationConfiguration = <jbi-task version="1.0" xmlns="http://java.sun.com/xml/ns/jbi/management-message"><jbi-task-result><frmwk-task-result><frmwk-task-result-details><task-result-details><task-id>deleteApplicationConfiguration</task-id><task-result>SUCCESS</task-result></task-result-details><locale>en</locale></frmwk-task-result-details></frmwk-task-result></jbi-task-result></jbi-task>

BUILD SUCCESSFUL
IGNORE Total time: 1 second
jbi_instance_name is server
IGNORE jmx.provider is service:jmx:rmi:///jndi/rmi://nikita-sawants-computer.local:8687/management/rmi-jmx-connector
Result of getApplicationConfigurations: {defaultConfig={connectionURL=http://www.sun.com, configurationName=defaultConfig, securityCredential=abc, securityPrincipal=administrator, jndienv.1=env2=value2, jndienv.0=env1=value1}}

BUILD SUCCESSFUL
IGNORE Total time: 1 second
Shutting down a component
IGNORE   jmx connection info: (host=localhost, port=4849, secure=false, username=admin, target=admin-cluster )
  name=admin-common-binding-1
Shutdown component succeeded. [
admin-common-binding-1
]

BUILD SUCCESSFUL
IGNORE Total time: 0 seconds
Uninstalling a component
IGNORE   jmx connection info: (host=localhost, port=4849, secure=false, username=admin, target=admin-cluster )
  name=admin-common-binding-1
Uninstall component succeeded. [
admin-common-binding-1
]

BUILD SUCCESSFUL
IGNORE Total time: 0 seconds
Command stop-instance executed successfully.
Command delete-instance executed successfully.
Command delete-cluster executed successfully.
Command stop-node-agent executed successfully.
Command delete-node-agent executed successfully.
IGNORE Command delete-node-agent-config executed successfully.
