admincommon00004 : Test listing shared library dependencies for target=server and target=domain. This tests the fix for Issue 60.
jbi_instance_name is server
IGNORE jmx.provider is service:jmx:rmi:///jndi/rmi://blueman:10587/management/rmi-jmx-connector
testing server.
server results: <?xml version="1.0" encoding="UTF-8"?>
<component-info-list  version="1.0"  xmlns="http://java.sun.com/xml/ns/jbi/component-info-list"  xmlns:version="http://java.sun.com/xml/ns/jbi/component-info-list/version"  >
<component-info 
type="service-engine" 
name="sun-javaee-engine" 
state="Shutdown" >
<description>Java Enterprise Edition Service Engine</description> 
</component-info> 
</component-info-list>
testing domain.
domain results: <?xml version="1.0" encoding="UTF-8"?>
<component-info-list  version="1.0"  xmlns="http://java.sun.com/xml/ns/jbi/component-info-list"  xmlns:version="http://java.sun.com/xml/ns/jbi/component-info-list/version"  >
<component-info 
type="service-engine" 
name="sun-javaee-engine" 
state="Shutdown" >
<description>Java Enterprise Edition Service Engine</description> 
</component-info> 
</component-info-list>
list binding components for 'server'.
results: <?xml version="1.0" encoding="UTF-8"?>
<component-info-list  version="1.0"  xmlns="http://java.sun.com/xml/ns/jbi/component-info-list"  xmlns:version="http://java.sun.com/xml/ns/jbi/component-info-list/version"  >
<component-info
type="binding-component"
name="sun-http-binding"
state="Shutdown" >
<description>HTTP binding component. Provides message processing capabilities over HTTP protocol in a JBI 1.0 compliant environment.</description>
</component-info>
</component-info-list>
BUILD SUCCESSFUL
IGNORE Total time: 2 seconds
