pb00001 : proxy NMS performance test
Start ESBTest domain
IGNORE Redirecting output to C:/cygwin/gf/domains/ESBTest/logs/server.log
IGNORE Domain [ESBTest] is running [Sun Java System Application Server 9.1_02 (build b02-fcs)] with its configuration and logs at: [C:\cygwin\gf\domains].
Install tbe Proxy Binding component
Installed component SunProxyBinding.
Start the Proxy Binding component
Started component SunProxyBinding.
