pb00005 : proxy NMS performance test
Stop SA from TestEngine component
Shut Down service assembly TestEngine_SA.
Undeploy SA from TestEngine component
Undeployed service assembly TestEngine_SA.
Stop the TestEngine
Stopped component TestEngine.
IGNORE Engine saw: 3026 Exchanges, 67 Per/Second
SUCCESSFUL
Shutdown the TestEngine
Shut Down component TestEngine.
Uninstall the TestEngine
Uninstalled component TestEngine.
