testname is manage00201
IGNORE JBI_HOME is C:\cygwin\home\kcbabo\build\open-esb\install\as8/jbi
IGNORE JBI_DOMAIN_ROOT is C:/cygwin/home/kcbabo/build/open-esb/install/as8/domains/domain1
IGNORE jbi_instance_name is domain1
IGNORE jbi_target_name is server
IGNORE jmx.provider is service:jmx:rmi:///jndi/rmi://orly:18686/management/rmi-jmx-connector
IGNORE ##### SystemInfo='Java Open Enterprise Service Bus
IGNORE 1.1(061023_5)
IGNORE Copyright (c) 2004-2005 Sun Microsystems Inc., All Rights Reserved.
'
##### SystemService(AdminService)='com.sun.jbi:Target=server,ServiceName=AdminService,ServiceType=Admin'
##### SystemService(DeploymentService)='com.sun.jbi:Target=server,ServiceName=DeploymentService,ServiceType=Deployment'
##### SystemService(InstallationService)='com.sun.jbi:Target=server,ServiceName=InstallationService,ServiceType=Installation'

BUILD SUCCESSFUL
IGNORE Total time: 2 seconds
