IGNORE Jan 28, 2008 10:55:35 PM com.sun.jbi.installer.JBICoreInstaller main
IGNORE INFO: OpenESB JBI Core Components successfully installed in installers/core/bld/test/jbi
3rd-party-licenses.html
bin
checksum.log
components
copyright.txt
doc
jbi-core-installer.log
jbi.ver
lib
ojc.ver
readme.txt
schemas
shared-libraries
install
jbi-admin-cli.jar
jbi-admin-common.jar
jbi-admin-gui.jar
jbi-ant-tasks.jar
jbi-ext.jar
jbi-upgrade-tool.jar
jbi.jar
jbi_framework.jar
jbi_rt.jar
xbean.jar
sun-http-binding
sun-javaee-engine
sun-wsdl-library
